^D:\STUDIA\JA\PROJEKT\ASMDLL\X64\RELEASE\DLLMAIN.OBJ|D:\STUDIA\JA\PROJEKT\ASMDLL\X64\RELEASE\MAIN.OBJ
D:\STUDIA\JA\PROJEKT\ASSEMBLERPROJECT\BIN\X64\RELEASE\ASMDLL.DLL
D:\STUDIA\JA\PROJEKT\ASSEMBLERPROJECT\BIN\X64\RELEASE\ASMDLL.PDB
