d:\studia\ja\projekt\dllc++\x64\release\dllc++.pch
d:\studia\ja\projekt\dllc++\x64\release\vc142.pdb
d:\studia\ja\projekt\dllc++\x64\release\pch.obj
d:\studia\ja\projekt\dllc++\x64\release\dllmain.obj
d:\studia\ja\projekt\dllc++\x64\release\imagemodificationlibrary.obj
d:\studia\ja\projekt\dllc++\x64\release\dllc++.lib
d:\studia\ja\projekt\dllc++\x64\release\dllc++.exp
d:\studia\ja\projekt\dllc++\x64\release\dllc++.ipdb
d:\studia\ja\projekt\dllc++\x64\release\dllc++.iobj
d:\studia\ja\projekt\assemblerproject\bin\x64\release\dllc++.lib
d:\studia\ja\projekt\assemblerproject\bin\x64\release\dllc++.exp
d:\studia\ja\projekt\assemblerproject\bin\x64\release\dllc++.ipdb
d:\studia\ja\projekt\assemblerproject\bin\x64\release\dllc++.iobj
d:\studia\ja\projekt\dllc++\x64\release\dllc++.dll
d:\studia\ja\projekt\dllc++\x64\release\dllc++.pdb
d:\studia\ja\projekt\assemblerproject\bin\x64\release\dllc++.dll
d:\studia\ja\projekt\assemblerproject\bin\x64\release\dllc++.pdb
d:\studia\ja\projekt\dllc++\..\assemblerproject\bin\x64\release\dllc++.dll
d:\studia\ja\projekt\dllc++\x64\release\dllc++.tlog\cl.command.1.tlog
d:\studia\ja\projekt\dllc++\x64\release\dllc++.tlog\cl.read.1.tlog
d:\studia\ja\projekt\dllc++\x64\release\dllc++.tlog\cl.write.1.tlog
d:\studia\ja\projekt\dllc++\x64\release\dllc++.tlog\dllc++.write.1u.tlog
d:\studia\ja\projekt\dllc++\x64\release\dllc++.tlog\link.command.1.tlog
d:\studia\ja\projekt\dllc++\x64\release\dllc++.tlog\link.read.1.tlog
d:\studia\ja\projekt\dllc++\x64\release\dllc++.tlog\link.write.1.tlog
