^D:\Studia\JA\Projekt\ASMDLL\ASMDLL.vcxproj
D:\Studia\JA\Projekt\AssemblerProject\bin\x64\Debug\ASMDLL.lib
D:\Studia\JA\Projekt\AssemblerProject\bin\x64\Debug\ASMDLL.exp
^D:\Studia\JA\Projekt\ASMDLL\ASMDLL.vcxproj
D:\Studia\JA\Projekt\AssemblerProject\bin\x64\Debug\ASMDLL.lib
D:\Studia\JA\Projekt\AssemblerProject\bin\x64\Debug\ASMDLL.exp
^D:\Studia\JA\Projekt\ASMDLL\ASMDLL.vcxproj
D:\Studia\JA\Projekt\AssemblerProject\bin\x64\Debug\ASMDLL.lib
D:\Studia\JA\Projekt\AssemblerProject\bin\x64\Debug\ASMDLL.exp
^D:\Studia\JA\Projekt\ASMDLL\ASMDLL.vcxproj
D:\Studia\JA\Projekt\AssemblerProject\bin\x64\Debug\ASMDLL.lib
D:\Studia\JA\Projekt\AssemblerProject\bin\x64\Debug\ASMDLL.exp
^D:\Studia\JA\Projekt\ASMDLL\ASMDLL.vcxproj
D:\Studia\JA\Projekt\AssemblerProject\bin\x64\Debug\ASMDLL.lib
D:\Studia\JA\Projekt\AssemblerProject\bin\x64\Debug\ASMDLL.exp
^D:\Studia\JA\Projekt\ASMDLL\ASMDLL.vcxproj
D:\Studia\JA\Projekt\AssemblerProject\bin\x64\Debug\ASMDLL.lib
D:\Studia\JA\Projekt\AssemblerProject\bin\x64\Debug\ASMDLL.exp
^D:\Studia\JA\Projekt\ASMDLL\ASMDLL.vcxproj
D:\Studia\JA\Projekt\AssemblerProject\bin\x64\Debug\ASMDLL.lib
D:\Studia\JA\Projekt\AssemblerProject\bin\x64\Debug\ASMDLL.exp
^D:\Studia\JA\Projekt\ASMDLL\ASMDLL.vcxproj
D:\Studia\JA\Projekt\AssemblerProject\bin\x64\Debug\ASMDLL.lib
D:\Studia\JA\Projekt\AssemblerProject\bin\x64\Debug\ASMDLL.exp
^D:\Studia\JA\Projekt\ASMDLL\ASMDLL.vcxproj
D:\Studia\JA\Projekt\AssemblerProject\bin\x64\Debug\ASMDLL.lib
D:\Studia\JA\Projekt\AssemblerProject\bin\x64\Debug\ASMDLL.exp
^D:\Studia\JA\Projekt\ASMDLL\ASMDLL.vcxproj
D:\Studia\JA\Projekt\AssemblerProject\bin\x64\Debug\ASMDLL.lib
D:\Studia\JA\Projekt\AssemblerProject\bin\x64\Debug\ASMDLL.exp
^D:\Studia\JA\Projekt\ASMDLL\ASMDLL.vcxproj
D:\Studia\JA\Projekt\AssemblerProject\bin\x64\Debug\ASMDLL.lib
D:\Studia\JA\Projekt\AssemblerProject\bin\x64\Debug\ASMDLL.exp
^D:\Studia\JA\Projekt\ASMDLL\ASMDLL.vcxproj
D:\Studia\JA\Projekt\AssemblerProject\bin\x64\Debug\ASMDLL.lib
D:\Studia\JA\Projekt\AssemblerProject\bin\x64\Debug\ASMDLL.exp
^D:\Studia\JA\Projekt\ASMDLL\ASMDLL.vcxproj
D:\Studia\JA\Projekt\AssemblerProject\bin\x64\Debug\ASMDLL.lib
D:\Studia\JA\Projekt\AssemblerProject\bin\x64\Debug\ASMDLL.exp
^D:\Studia\JA\Projekt\ASMDLL\ASMDLL.vcxproj
D:\Studia\JA\Projekt\AssemblerProject\bin\x64\Debug\ASMDLL.lib
D:\Studia\JA\Projekt\AssemblerProject\bin\x64\Debug\ASMDLL.exp
^D:\Studia\JA\Projekt\ASMDLL\ASMDLL.vcxproj
D:\Studia\JA\Projekt\AssemblerProject\bin\x64\Debug\ASMDLL.lib
D:\Studia\JA\Projekt\AssemblerProject\bin\x64\Debug\ASMDLL.exp
^D:\Studia\JA\Projekt\ASMDLL\ASMDLL.vcxproj
D:\Studia\JA\Projekt\AssemblerProject\bin\x64\Debug\ASMDLL.lib
D:\Studia\JA\Projekt\AssemblerProject\bin\x64\Debug\ASMDLL.exp
^D:\Studia\JA\Projekt\ASMDLL\ASMDLL.vcxproj
D:\Studia\JA\Projekt\AssemblerProject\bin\x64\Debug\ASMDLL.lib
D:\Studia\JA\Projekt\AssemblerProject\bin\x64\Debug\ASMDLL.exp
^D:\Studia\JA\Projekt\ASMDLL\ASMDLL.vcxproj
D:\Studia\JA\Projekt\AssemblerProject\bin\x64\Debug\ASMDLL.lib
D:\Studia\JA\Projekt\AssemblerProject\bin\x64\Debug\ASMDLL.exp
^D:\Studia\JA\Projekt\ASMDLL\ASMDLL.vcxproj
D:\Studia\JA\Projekt\AssemblerProject\bin\x64\Debug\ASMDLL.lib
D:\Studia\JA\Projekt\AssemblerProject\bin\x64\Debug\ASMDLL.exp
^D:\Studia\JA\Projekt\ASMDLL\ASMDLL.vcxproj
D:\Studia\JA\Projekt\AssemblerProject\bin\x64\Debug\ASMDLL.lib
D:\Studia\JA\Projekt\AssemblerProject\bin\x64\Debug\ASMDLL.exp
^D:\Studia\JA\Projekt\ASMDLL\ASMDLL.vcxproj
D:\Studia\JA\Projekt\AssemblerProject\bin\x64\Debug\ASMDLL.lib
D:\Studia\JA\Projekt\AssemblerProject\bin\x64\Debug\ASMDLL.exp
^D:\Studia\JA\Projekt\ASMDLL\ASMDLL.vcxproj
D:\Studia\JA\Projekt\AssemblerProject\bin\x64\Debug\ASMDLL.lib
D:\Studia\JA\Projekt\AssemblerProject\bin\x64\Debug\ASMDLL.exp
^D:\Studia\JA\Projekt\ASMDLL\ASMDLL.vcxproj
D:\Studia\JA\Projekt\AssemblerProject\bin\x64\Debug\ASMDLL.lib
D:\Studia\JA\Projekt\AssemblerProject\bin\x64\Debug\ASMDLL.exp
^D:\Studia\JA\Projekt\ASMDLL\ASMDLL.vcxproj
D:\Studia\JA\Projekt\AssemblerProject\bin\x64\Debug\ASMDLL.lib
D:\Studia\JA\Projekt\AssemblerProject\bin\x64\Debug\ASMDLL.exp
^D:\Studia\JA\Projekt\ASMDLL\ASMDLL.vcxproj
D:\Studia\JA\Projekt\AssemblerProject\bin\x64\Debug\ASMDLL.lib
D:\Studia\JA\Projekt\AssemblerProject\bin\x64\Debug\ASMDLL.exp
^D:\Studia\JA\Projekt\ASMDLL\ASMDLL.vcxproj
D:\Studia\JA\Projekt\AssemblerProject\bin\x64\Debug\ASMDLL.lib
D:\Studia\JA\Projekt\AssemblerProject\bin\x64\Debug\ASMDLL.exp
^D:\Studia\JA\Projekt\ASMDLL\ASMDLL.vcxproj
D:\Studia\JA\Projekt\AssemblerProject\bin\x64\Debug\ASMDLL.lib
D:\Studia\JA\Projekt\AssemblerProject\bin\x64\Debug\ASMDLL.exp
^D:\Studia\JA\Projekt\ASMDLL\ASMDLL.vcxproj
D:\Studia\JA\Projekt\AssemblerProject\bin\x64\Debug\ASMDLL.lib
D:\Studia\JA\Projekt\AssemblerProject\bin\x64\Debug\ASMDLL.exp
^D:\Studia\JA\Projekt\ASMDLL\ASMDLL.vcxproj
D:\Studia\JA\Projekt\AssemblerProject\bin\x64\Debug\ASMDLL.lib
D:\Studia\JA\Projekt\AssemblerProject\bin\x64\Debug\ASMDLL.exp
^D:\Studia\JA\Projekt\ASMDLL\ASMDLL.vcxproj
D:\Studia\JA\Projekt\AssemblerProject\bin\x64\Debug\ASMDLL.lib
D:\Studia\JA\Projekt\AssemblerProject\bin\x64\Debug\ASMDLL.exp
^D:\Studia\JA\Projekt\ASMDLL\ASMDLL.vcxproj
D:\Studia\JA\Projekt\AssemblerProject\bin\x64\Debug\ASMDLL.lib
D:\Studia\JA\Projekt\AssemblerProject\bin\x64\Debug\ASMDLL.exp
^D:\Studia\JA\Projekt\ASMDLL\ASMDLL.vcxproj
D:\Studia\JA\Projekt\AssemblerProject\bin\x64\Debug\ASMDLL.lib
D:\Studia\JA\Projekt\AssemblerProject\bin\x64\Debug\ASMDLL.exp
^D:\Studia\JA\Projekt\ASMDLL\ASMDLL.vcxproj
D:\Studia\JA\Projekt\AssemblerProject\bin\x64\Debug\ASMDLL.lib
D:\Studia\JA\Projekt\AssemblerProject\bin\x64\Debug\ASMDLL.exp
^D:\Studia\JA\Projekt\ASMDLL\ASMDLL.vcxproj
D:\Studia\JA\Projekt\AssemblerProject\bin\x64\Debug\ASMDLL.lib
D:\Studia\JA\Projekt\AssemblerProject\bin\x64\Debug\ASMDLL.exp
^D:\Studia\JA\Projekt\ASMDLL\ASMDLL.vcxproj
D:\Studia\JA\Projekt\AssemblerProject\bin\x64\Debug\ASMDLL.lib
D:\Studia\JA\Projekt\AssemblerProject\bin\x64\Debug\ASMDLL.exp
^D:\Studia\JA\Projekt\ASMDLL\ASMDLL.vcxproj
D:\Studia\JA\Projekt\AssemblerProject\bin\x64\Debug\ASMDLL.lib
D:\Studia\JA\Projekt\AssemblerProject\bin\x64\Debug\ASMDLL.exp
^D:\Studia\JA\Projekt\ASMDLL\ASMDLL.vcxproj
D:\Studia\JA\Projekt\AssemblerProject\bin\x64\Debug\ASMDLL.lib
D:\Studia\JA\Projekt\AssemblerProject\bin\x64\Debug\ASMDLL.exp
^D:\Studia\JA\Projekt\ASMDLL\ASMDLL.vcxproj
D:\Studia\JA\Projekt\AssemblerProject\bin\x64\Debug\ASMDLL.lib
D:\Studia\JA\Projekt\AssemblerProject\bin\x64\Debug\ASMDLL.exp
^D:\Studia\JA\Projekt\ASMDLL\ASMDLL.vcxproj
D:\Studia\JA\Projekt\AssemblerProject\bin\x64\Debug\ASMDLL.lib
D:\Studia\JA\Projekt\AssemblerProject\bin\x64\Debug\ASMDLL.exp
^D:\Studia\JA\Projekt\ASMDLL\ASMDLL.vcxproj
D:\Studia\JA\Projekt\AssemblerProject\bin\x64\Debug\ASMDLL.lib
D:\Studia\JA\Projekt\AssemblerProject\bin\x64\Debug\ASMDLL.exp
^D:\Studia\JA\Projekt\ASMDLL\ASMDLL.vcxproj
D:\Studia\JA\Projekt\AssemblerProject\bin\x64\Debug\ASMDLL.lib
D:\Studia\JA\Projekt\AssemblerProject\bin\x64\Debug\ASMDLL.exp
^D:\Studia\JA\Projekt\ASMDLL\ASMDLL.vcxproj
D:\Studia\JA\Projekt\AssemblerProject\bin\x64\Debug\ASMDLL.lib
D:\Studia\JA\Projekt\AssemblerProject\bin\x64\Debug\ASMDLL.exp
^D:\Studia\JA\Projekt\ASMDLL\ASMDLL.vcxproj
D:\Studia\JA\Projekt\AssemblerProject\bin\x64\Debug\ASMDLL.lib
D:\Studia\JA\Projekt\AssemblerProject\bin\x64\Debug\ASMDLL.exp
^D:\Studia\JA\Projekt\ASMDLL\ASMDLL.vcxproj
D:\Studia\JA\Projekt\AssemblerProject\bin\x64\Debug\ASMDLL.lib
D:\Studia\JA\Projekt\AssemblerProject\bin\x64\Debug\ASMDLL.exp
^D:\Studia\JA\Projekt\ASMDLL\ASMDLL.vcxproj
D:\Studia\JA\Projekt\AssemblerProject\bin\x64\Debug\ASMDLL.lib
D:\Studia\JA\Projekt\AssemblerProject\bin\x64\Debug\ASMDLL.exp
^D:\Studia\JA\Projekt\ASMDLL\ASMDLL.vcxproj
D:\Studia\JA\Projekt\AssemblerProject\bin\x64\Debug\ASMDLL.lib
D:\Studia\JA\Projekt\AssemblerProject\bin\x64\Debug\ASMDLL.exp
^D:\Studia\JA\Projekt\ASMDLL\ASMDLL.vcxproj
D:\Studia\JA\Projekt\AssemblerProject\bin\x64\Debug\ASMDLL.lib
D:\Studia\JA\Projekt\AssemblerProject\bin\x64\Debug\ASMDLL.exp
^D:\Studia\JA\Projekt\ASMDLL\ASMDLL.vcxproj
D:\Studia\JA\Projekt\AssemblerProject\bin\x64\Debug\ASMDLL.lib
D:\Studia\JA\Projekt\AssemblerProject\bin\x64\Debug\ASMDLL.exp
^D:\Studia\JA\Projekt\ASMDLL\ASMDLL.vcxproj
D:\Studia\JA\Projekt\AssemblerProject\bin\x64\Debug\ASMDLL.lib
D:\Studia\JA\Projekt\AssemblerProject\bin\x64\Debug\ASMDLL.exp
^D:\Studia\JA\Projekt\ASMDLL\ASMDLL.vcxproj
D:\Studia\JA\Projekt\AssemblerProject\bin\x64\Debug\ASMDLL.lib
D:\Studia\JA\Projekt\AssemblerProject\bin\x64\Debug\ASMDLL.exp
^D:\Studia\JA\Projekt\ASMDLL\ASMDLL.vcxproj
D:\Studia\JA\Projekt\AssemblerProject\bin\x64\Debug\ASMDLL.lib
D:\Studia\JA\Projekt\AssemblerProject\bin\x64\Debug\ASMDLL.exp
^D:\Studia\JA\Projekt\ASMDLL\ASMDLL.vcxproj
D:\Studia\JA\Projekt\AssemblerProject\bin\x64\Debug\ASMDLL.lib
D:\Studia\JA\Projekt\AssemblerProject\bin\x64\Debug\ASMDLL.exp
^D:\Studia\JA\Projekt\ASMDLL\ASMDLL.vcxproj
D:\Studia\JA\Projekt\AssemblerProject\bin\x64\Debug\ASMDLL.lib
D:\Studia\JA\Projekt\AssemblerProject\bin\x64\Debug\ASMDLL.exp
^D:\Studia\JA\Projekt\ASMDLL\ASMDLL.vcxproj
D:\Studia\JA\Projekt\AssemblerProject\bin\x64\Debug\ASMDLL.lib
D:\Studia\JA\Projekt\AssemblerProject\bin\x64\Debug\ASMDLL.exp
^D:\Studia\JA\Projekt\ASMDLL\ASMDLL.vcxproj
D:\Studia\JA\Projekt\AssemblerProject\bin\x64\Debug\ASMDLL.lib
D:\Studia\JA\Projekt\AssemblerProject\bin\x64\Debug\ASMDLL.exp
^D:\Studia\JA\Projekt\ASMDLL\ASMDLL.vcxproj
D:\Studia\JA\Projekt\AssemblerProject\bin\x64\Debug\ASMDLL.lib
D:\Studia\JA\Projekt\AssemblerProject\bin\x64\Debug\ASMDLL.exp
^D:\Studia\JA\Projekt\ASMDLL\ASMDLL.vcxproj
D:\Studia\JA\Projekt\AssemblerProject\bin\x64\Debug\ASMDLL.lib
D:\Studia\JA\Projekt\AssemblerProject\bin\x64\Debug\ASMDLL.exp
^D:\Studia\JA\Projekt\ASMDLL\ASMDLL.vcxproj
D:\Studia\JA\Projekt\AssemblerProject\bin\x64\Debug\ASMDLL.lib
D:\Studia\JA\Projekt\AssemblerProject\bin\x64\Debug\ASMDLL.exp
^D:\Studia\JA\Projekt\ASMDLL\ASMDLL.vcxproj
D:\Studia\JA\Projekt\AssemblerProject\bin\x64\Debug\ASMDLL.lib
D:\Studia\JA\Projekt\AssemblerProject\bin\x64\Debug\ASMDLL.exp
^D:\Studia\JA\Projekt\ASMDLL\ASMDLL.vcxproj
D:\Studia\JA\Projekt\AssemblerProject\bin\x64\Debug\ASMDLL.lib
D:\Studia\JA\Projekt\AssemblerProject\bin\x64\Debug\ASMDLL.exp
^D:\Studia\JA\Projekt\ASMDLL\ASMDLL.vcxproj
D:\Studia\JA\Projekt\AssemblerProject\bin\x64\Debug\ASMDLL.lib
D:\Studia\JA\Projekt\AssemblerProject\bin\x64\Debug\ASMDLL.exp
^D:\Studia\JA\Projekt\ASMDLL\ASMDLL.vcxproj
D:\Studia\JA\Projekt\AssemblerProject\bin\x64\Debug\ASMDLL.lib
D:\Studia\JA\Projekt\AssemblerProject\bin\x64\Debug\ASMDLL.exp
^D:\Studia\JA\Projekt\ASMDLL\ASMDLL.vcxproj
D:\Studia\JA\Projekt\AssemblerProject\bin\x64\Debug\ASMDLL.lib
D:\Studia\JA\Projekt\AssemblerProject\bin\x64\Debug\ASMDLL.exp
^D:\Studia\JA\Projekt\ASMDLL\ASMDLL.vcxproj
D:\Studia\JA\Projekt\AssemblerProject\bin\x64\Debug\ASMDLL.lib
D:\Studia\JA\Projekt\AssemblerProject\bin\x64\Debug\ASMDLL.exp
^D:\Studia\JA\Projekt\ASMDLL\ASMDLL.vcxproj
D:\Studia\JA\Projekt\AssemblerProject\bin\x64\Debug\ASMDLL.lib
D:\Studia\JA\Projekt\AssemblerProject\bin\x64\Debug\ASMDLL.exp
^D:\Studia\JA\Projekt\ASMDLL\ASMDLL.vcxproj
D:\Studia\JA\Projekt\AssemblerProject\bin\x64\Debug\ASMDLL.lib
D:\Studia\JA\Projekt\AssemblerProject\bin\x64\Debug\ASMDLL.exp
^D:\Studia\JA\Projekt\ASMDLL\ASMDLL.vcxproj
D:\Studia\JA\Projekt\AssemblerProject\bin\x64\Debug\ASMDLL.lib
D:\Studia\JA\Projekt\AssemblerProject\bin\x64\Debug\ASMDLL.exp
^D:\Studia\JA\Projekt\ASMDLL\ASMDLL.vcxproj
D:\Studia\JA\Projekt\AssemblerProject\bin\x64\Debug\ASMDLL.lib
D:\Studia\JA\Projekt\AssemblerProject\bin\x64\Debug\ASMDLL.exp
^D:\Studia\JA\Projekt\ASMDLL\ASMDLL.vcxproj
D:\Studia\JA\Projekt\AssemblerProject\bin\x64\Debug\ASMDLL.lib
D:\Studia\JA\Projekt\AssemblerProject\bin\x64\Debug\ASMDLL.exp
^D:\Studia\JA\Projekt\ASMDLL\ASMDLL.vcxproj
D:\Studia\JA\Projekt\AssemblerProject\bin\x64\Debug\ASMDLL.lib
D:\Studia\JA\Projekt\AssemblerProject\bin\x64\Debug\ASMDLL.exp
^D:\Studia\JA\Projekt\ASMDLL\ASMDLL.vcxproj
D:\Studia\JA\Projekt\AssemblerProject\bin\x64\Debug\ASMDLL.lib
D:\Studia\JA\Projekt\AssemblerProject\bin\x64\Debug\ASMDLL.exp
^D:\Studia\JA\Projekt\ASMDLL\ASMDLL.vcxproj
D:\Studia\JA\Projekt\AssemblerProject\bin\x64\Debug\ASMDLL.lib
D:\Studia\JA\Projekt\AssemblerProject\bin\x64\Debug\ASMDLL.exp
^D:\Studia\JA\Projekt\ASMDLL\ASMDLL.vcxproj
D:\Studia\JA\Projekt\AssemblerProject\bin\x64\Debug\ASMDLL.lib
D:\Studia\JA\Projekt\AssemblerProject\bin\x64\Debug\ASMDLL.exp
^D:\Studia\JA\Projekt\ASMDLL\ASMDLL.vcxproj
D:\Studia\JA\Projekt\AssemblerProject\bin\x64\Debug\ASMDLL.lib
D:\Studia\JA\Projekt\AssemblerProject\bin\x64\Debug\ASMDLL.exp
^D:\Studia\JA\Projekt\ASMDLL\ASMDLL.vcxproj
D:\Studia\JA\Projekt\AssemblerProject\bin\x64\Debug\ASMDLL.lib
D:\Studia\JA\Projekt\AssemblerProject\bin\x64\Debug\ASMDLL.exp
^D:\Studia\JA\Projekt\ASMDLL\ASMDLL.vcxproj
D:\Studia\JA\Projekt\AssemblerProject\bin\x64\Debug\ASMDLL.lib
D:\Studia\JA\Projekt\AssemblerProject\bin\x64\Debug\ASMDLL.exp
^D:\Studia\JA\Projekt\ASMDLL\ASMDLL.vcxproj
D:\Studia\JA\Projekt\AssemblerProject\bin\x64\Debug\ASMDLL.lib
D:\Studia\JA\Projekt\AssemblerProject\bin\x64\Debug\ASMDLL.exp
^D:\Studia\JA\Projekt\ASMDLL\ASMDLL.vcxproj
D:\Studia\JA\Projekt\AssemblerProject\bin\x64\Debug\ASMDLL.lib
D:\Studia\JA\Projekt\AssemblerProject\bin\x64\Debug\ASMDLL.exp
^D:\Studia\JA\Projekt\ASMDLL\ASMDLL.vcxproj
D:\Studia\JA\Projekt\AssemblerProject\bin\x64\Debug\ASMDLL.lib
D:\Studia\JA\Projekt\AssemblerProject\bin\x64\Debug\ASMDLL.exp
^D:\Studia\JA\Projekt\ASMDLL\ASMDLL.vcxproj
D:\Studia\JA\Projekt\AssemblerProject\bin\x64\Debug\ASMDLL.lib
D:\Studia\JA\Projekt\AssemblerProject\bin\x64\Debug\ASMDLL.exp
^D:\Studia\JA\Projekt\ASMDLL\ASMDLL.vcxproj
D:\Studia\JA\Projekt\AssemblerProject\bin\x64\Debug\ASMDLL.lib
D:\Studia\JA\Projekt\AssemblerProject\bin\x64\Debug\ASMDLL.exp
^D:\Studia\JA\Projekt\ASMDLL\ASMDLL.vcxproj
D:\Studia\JA\Projekt\AssemblerProject\bin\x64\Debug\ASMDLL.lib
D:\Studia\JA\Projekt\AssemblerProject\bin\x64\Debug\ASMDLL.exp
^D:\Studia\JA\Projekt\ASMDLL\ASMDLL.vcxproj
D:\Studia\JA\Projekt\AssemblerProject\bin\x64\Debug\ASMDLL.lib
D:\Studia\JA\Projekt\AssemblerProject\bin\x64\Debug\ASMDLL.exp
^D:\Studia\JA\Projekt\ASMDLL\ASMDLL.vcxproj
D:\Studia\JA\Projekt\AssemblerProject\bin\x64\Debug\ASMDLL.lib
D:\Studia\JA\Projekt\AssemblerProject\bin\x64\Debug\ASMDLL.exp
^D:\Studia\JA\Projekt\ASMDLL\ASMDLL.vcxproj
D:\Studia\JA\Projekt\AssemblerProject\bin\x64\Debug\ASMDLL.lib
D:\Studia\JA\Projekt\AssemblerProject\bin\x64\Debug\ASMDLL.exp
^D:\Studia\JA\Projekt\ASMDLL\ASMDLL.vcxproj
D:\Studia\JA\Projekt\AssemblerProject\bin\x64\Debug\ASMDLL.lib
D:\Studia\JA\Projekt\AssemblerProject\bin\x64\Debug\ASMDLL.exp
^D:\Studia\JA\Projekt\ASMDLL\ASMDLL.vcxproj
D:\Studia\JA\Projekt\AssemblerProject\bin\x64\Debug\ASMDLL.lib
D:\Studia\JA\Projekt\AssemblerProject\bin\x64\Debug\ASMDLL.exp
^D:\Studia\JA\Projekt\ASMDLL\ASMDLL.vcxproj
D:\Studia\JA\Projekt\AssemblerProject\bin\x64\Debug\ASMDLL.lib
D:\Studia\JA\Projekt\AssemblerProject\bin\x64\Debug\ASMDLL.exp
^D:\Studia\JA\Projekt\ASMDLL\ASMDLL.vcxproj
D:\Studia\JA\Projekt\AssemblerProject\bin\x64\Debug\ASMDLL.lib
D:\Studia\JA\Projekt\AssemblerProject\bin\x64\Debug\ASMDLL.exp
^D:\Studia\JA\Projekt\ASMDLL\ASMDLL.vcxproj
D:\Studia\JA\Projekt\AssemblerProject\bin\x64\Debug\ASMDLL.lib
D:\Studia\JA\Projekt\AssemblerProject\bin\x64\Debug\ASMDLL.exp
^D:\Studia\JA\Projekt\ASMDLL\ASMDLL.vcxproj
D:\Studia\JA\Projekt\AssemblerProject\bin\x64\Debug\ASMDLL.lib
D:\Studia\JA\Projekt\AssemblerProject\bin\x64\Debug\ASMDLL.exp
^D:\Studia\JA\Projekt\ASMDLL\ASMDLL.vcxproj
D:\Studia\JA\Projekt\AssemblerProject\bin\x64\Debug\ASMDLL.lib
D:\Studia\JA\Projekt\AssemblerProject\bin\x64\Debug\ASMDLL.exp
^D:\Studia\JA\Projekt\ASMDLL\ASMDLL.vcxproj
D:\Studia\JA\Projekt\AssemblerProject\bin\x64\Debug\ASMDLL.lib
D:\Studia\JA\Projekt\AssemblerProject\bin\x64\Debug\ASMDLL.exp
^D:\Studia\JA\Projekt\ASMDLL\ASMDLL.vcxproj
D:\Studia\JA\Projekt\AssemblerProject\bin\x64\Debug\ASMDLL.lib
D:\Studia\JA\Projekt\AssemblerProject\bin\x64\Debug\ASMDLL.exp
^D:\Studia\JA\Projekt\ASMDLL\ASMDLL.vcxproj
D:\Studia\JA\Projekt\AssemblerProject\bin\x64\Debug\ASMDLL.lib
D:\Studia\JA\Projekt\AssemblerProject\bin\x64\Debug\ASMDLL.exp
^D:\Studia\JA\Projekt\ASMDLL\ASMDLL.vcxproj
D:\Studia\JA\Projekt\AssemblerProject\bin\x64\Debug\ASMDLL.lib
D:\Studia\JA\Projekt\AssemblerProject\bin\x64\Debug\ASMDLL.exp
^D:\Studia\JA\Projekt\ASMDLL\ASMDLL.vcxproj
D:\Studia\JA\Projekt\AssemblerProject\bin\x64\Debug\ASMDLL.lib
D:\Studia\JA\Projekt\AssemblerProject\bin\x64\Debug\ASMDLL.exp
^D:\Studia\JA\Projekt\ASMDLL\ASMDLL.vcxproj
D:\Studia\JA\Projekt\AssemblerProject\bin\x64\Debug\ASMDLL.lib
D:\Studia\JA\Projekt\AssemblerProject\bin\x64\Debug\ASMDLL.exp
^D:\Studia\JA\Projekt\ASMDLL\ASMDLL.vcxproj
D:\Studia\JA\Projekt\AssemblerProject\bin\x64\Debug\ASMDLL.lib
D:\Studia\JA\Projekt\AssemblerProject\bin\x64\Debug\ASMDLL.exp
^D:\Studia\JA\Projekt\ASMDLL\ASMDLL.vcxproj
D:\Studia\JA\Projekt\AssemblerProject\bin\x64\Debug\ASMDLL.lib
D:\Studia\JA\Projekt\AssemblerProject\bin\x64\Debug\ASMDLL.exp
^D:\Studia\JA\Projekt\ASMDLL\ASMDLL.vcxproj
D:\Studia\JA\Projekt\AssemblerProject\bin\x64\Debug\ASMDLL.lib
D:\Studia\JA\Projekt\AssemblerProject\bin\x64\Debug\ASMDLL.exp
^D:\Studia\JA\Projekt\ASMDLL\ASMDLL.vcxproj
D:\Studia\JA\Projekt\AssemblerProject\bin\x64\Debug\ASMDLL.lib
D:\Studia\JA\Projekt\AssemblerProject\bin\x64\Debug\ASMDLL.exp
^D:\Studia\JA\Projekt\ASMDLL\ASMDLL.vcxproj
D:\Studia\JA\Projekt\AssemblerProject\bin\x64\Debug\ASMDLL.lib
D:\Studia\JA\Projekt\AssemblerProject\bin\x64\Debug\ASMDLL.exp
^D:\Studia\JA\Projekt\ASMDLL\ASMDLL.vcxproj
D:\Studia\JA\Projekt\AssemblerProject\bin\x64\Debug\ASMDLL.lib
D:\Studia\JA\Projekt\AssemblerProject\bin\x64\Debug\ASMDLL.exp
^D:\Studia\JA\Projekt\ASMDLL\ASMDLL.vcxproj
D:\Studia\JA\Projekt\AssemblerProject\bin\x64\Debug\ASMDLL.lib
D:\Studia\JA\Projekt\AssemblerProject\bin\x64\Debug\ASMDLL.exp
^D:\Studia\JA\Projekt\ASMDLL\ASMDLL.vcxproj
D:\Studia\JA\Projekt\AssemblerProject\bin\x64\Debug\ASMDLL.lib
D:\Studia\JA\Projekt\AssemblerProject\bin\x64\Debug\ASMDLL.exp
^D:\Studia\JA\Projekt\ASMDLL\ASMDLL.vcxproj
D:\Studia\JA\Projekt\AssemblerProject\bin\x64\Debug\ASMDLL.lib
D:\Studia\JA\Projekt\AssemblerProject\bin\x64\Debug\ASMDLL.exp
^D:\Studia\JA\Projekt\ASMDLL\ASMDLL.vcxproj
D:\Studia\JA\Projekt\AssemblerProject\bin\x64\Debug\ASMDLL.lib
D:\Studia\JA\Projekt\AssemblerProject\bin\x64\Debug\ASMDLL.exp
^D:\Studia\JA\Projekt\ASMDLL\ASMDLL.vcxproj
D:\Studia\JA\Projekt\AssemblerProject\bin\x64\Debug\ASMDLL.lib
D:\Studia\JA\Projekt\AssemblerProject\bin\x64\Debug\ASMDLL.exp
^D:\Studia\JA\Projekt\ASMDLL\ASMDLL.vcxproj
D:\Studia\JA\Projekt\AssemblerProject\bin\x64\Debug\ASMDLL.lib
D:\Studia\JA\Projekt\AssemblerProject\bin\x64\Debug\ASMDLL.exp
^D:\Studia\JA\Projekt\ASMDLL\ASMDLL.vcxproj
D:\Studia\JA\Projekt\AssemblerProject\bin\x64\Debug\ASMDLL.lib
D:\Studia\JA\Projekt\AssemblerProject\bin\x64\Debug\ASMDLL.exp
^D:\Studia\JA\Projekt\ASMDLL\ASMDLL.vcxproj
D:\Studia\JA\Projekt\AssemblerProject\bin\x64\Debug\ASMDLL.lib
D:\Studia\JA\Projekt\AssemblerProject\bin\x64\Debug\ASMDLL.exp
^D:\Studia\JA\Projekt\ASMDLL\ASMDLL.vcxproj
D:\Studia\JA\Projekt\AssemblerProject\bin\x64\Debug\ASMDLL.lib
D:\Studia\JA\Projekt\AssemblerProject\bin\x64\Debug\ASMDLL.exp
^D:\Studia\JA\Projekt\ASMDLL\ASMDLL.vcxproj
D:\Studia\JA\Projekt\AssemblerProject\bin\x64\Debug\ASMDLL.lib
D:\Studia\JA\Projekt\AssemblerProject\bin\x64\Debug\ASMDLL.exp
^D:\Studia\JA\Projekt\ASMDLL\ASMDLL.vcxproj
D:\Studia\JA\Projekt\AssemblerProject\bin\x64\Debug\ASMDLL.lib
D:\Studia\JA\Projekt\AssemblerProject\bin\x64\Debug\ASMDLL.exp
^D:\Studia\JA\Projekt\ASMDLL\ASMDLL.vcxproj
D:\Studia\JA\Projekt\AssemblerProject\bin\x64\Debug\ASMDLL.lib
D:\Studia\JA\Projekt\AssemblerProject\bin\x64\Debug\ASMDLL.exp
^D:\Studia\JA\Projekt\ASMDLL\ASMDLL.vcxproj
D:\Studia\JA\Projekt\AssemblerProject\bin\x64\Debug\ASMDLL.lib
D:\Studia\JA\Projekt\AssemblerProject\bin\x64\Debug\ASMDLL.exp
^D:\Studia\JA\Projekt\ASMDLL\ASMDLL.vcxproj
D:\Studia\JA\Projekt\AssemblerProject\bin\x64\Debug\ASMDLL.lib
D:\Studia\JA\Projekt\AssemblerProject\bin\x64\Debug\ASMDLL.exp
^D:\Studia\JA\Projekt\ASMDLL\ASMDLL.vcxproj
D:\Studia\JA\Projekt\AssemblerProject\bin\x64\Debug\ASMDLL.lib
D:\Studia\JA\Projekt\AssemblerProject\bin\x64\Debug\ASMDLL.exp
^D:\Studia\JA\Projekt\ASMDLL\ASMDLL.vcxproj
D:\Studia\JA\Projekt\AssemblerProject\bin\x64\Debug\ASMDLL.lib
D:\Studia\JA\Projekt\AssemblerProject\bin\x64\Debug\ASMDLL.exp
^D:\Studia\JA\Projekt\ASMDLL\ASMDLL.vcxproj
D:\Studia\JA\Projekt\AssemblerProject\bin\x64\Debug\ASMDLL.lib
D:\Studia\JA\Projekt\AssemblerProject\bin\x64\Debug\ASMDLL.exp
^D:\Studia\JA\Projekt\ASMDLL\ASMDLL.vcxproj
D:\Studia\JA\Projekt\AssemblerProject\bin\x64\Debug\ASMDLL.lib
D:\Studia\JA\Projekt\AssemblerProject\bin\x64\Debug\ASMDLL.exp
^D:\Studia\JA\Projekt\ASMDLL\ASMDLL.vcxproj
D:\Studia\JA\Projekt\AssemblerProject\bin\x64\Debug\ASMDLL.lib
D:\Studia\JA\Projekt\AssemblerProject\bin\x64\Debug\ASMDLL.exp
^D:\Studia\JA\Projekt\ASMDLL\ASMDLL.vcxproj
D:\Studia\JA\Projekt\AssemblerProject\bin\x64\Debug\ASMDLL.lib
D:\Studia\JA\Projekt\AssemblerProject\bin\x64\Debug\ASMDLL.exp
^D:\Studia\JA\Projekt\ASMDLL\ASMDLL.vcxproj
D:\Studia\JA\Projekt\AssemblerProject\bin\x64\Debug\ASMDLL.lib
D:\Studia\JA\Projekt\AssemblerProject\bin\x64\Debug\ASMDLL.exp
^D:\Studia\JA\Projekt\ASMDLL\ASMDLL.vcxproj
D:\Studia\JA\Projekt\AssemblerProject\bin\x64\Debug\ASMDLL.lib
D:\Studia\JA\Projekt\AssemblerProject\bin\x64\Debug\ASMDLL.exp
^D:\Studia\JA\Projekt\ASMDLL\ASMDLL.vcxproj
D:\Studia\JA\Projekt\AssemblerProject\bin\x64\Debug\ASMDLL.lib
D:\Studia\JA\Projekt\AssemblerProject\bin\x64\Debug\ASMDLL.exp
^D:\Studia\JA\Projekt\ASMDLL\ASMDLL.vcxproj
D:\Studia\JA\Projekt\AssemblerProject\bin\x64\Debug\ASMDLL.lib
D:\Studia\JA\Projekt\AssemblerProject\bin\x64\Debug\ASMDLL.exp
^D:\Studia\JA\Projekt\ASMDLL\ASMDLL.vcxproj
D:\Studia\JA\Projekt\AssemblerProject\bin\x64\Debug\ASMDLL.lib
D:\Studia\JA\Projekt\AssemblerProject\bin\x64\Debug\ASMDLL.exp
^D:\Studia\JA\Projekt\ASMDLL\ASMDLL.vcxproj
D:\Studia\JA\Projekt\AssemblerProject\bin\x64\Debug\ASMDLL.lib
D:\Studia\JA\Projekt\AssemblerProject\bin\x64\Debug\ASMDLL.exp
^D:\Studia\JA\Projekt\ASMDLL\ASMDLL.vcxproj
D:\Studia\JA\Projekt\AssemblerProject\bin\x64\Debug\ASMDLL.lib
D:\Studia\JA\Projekt\AssemblerProject\bin\x64\Debug\ASMDLL.exp
^D:\Studia\JA\Projekt\ASMDLL\ASMDLL.vcxproj
D:\Studia\JA\Projekt\AssemblerProject\bin\x64\Debug\ASMDLL.lib
D:\Studia\JA\Projekt\AssemblerProject\bin\x64\Debug\ASMDLL.exp
^D:\Studia\JA\Projekt\ASMDLL\ASMDLL.vcxproj
D:\Studia\JA\Projekt\AssemblerProject\bin\x64\Debug\ASMDLL.lib
D:\Studia\JA\Projekt\AssemblerProject\bin\x64\Debug\ASMDLL.exp
^D:\Studia\JA\Projekt\ASMDLL\ASMDLL.vcxproj
D:\Studia\JA\Projekt\AssemblerProject\bin\x64\Debug\ASMDLL.lib
D:\Studia\JA\Projekt\AssemblerProject\bin\x64\Debug\ASMDLL.exp
^D:\Studia\JA\Projekt\ASMDLL\ASMDLL.vcxproj
D:\Studia\JA\Projekt\AssemblerProject\bin\x64\Debug\ASMDLL.lib
D:\Studia\JA\Projekt\AssemblerProject\bin\x64\Debug\ASMDLL.exp
^D:\Studia\JA\Projekt\ASMDLL\ASMDLL.vcxproj
D:\Studia\JA\Projekt\AssemblerProject\bin\x64\Debug\ASMDLL.lib
D:\Studia\JA\Projekt\AssemblerProject\bin\x64\Debug\ASMDLL.exp
^D:\Studia\JA\Projekt\ASMDLL\ASMDLL.vcxproj
D:\Studia\JA\Projekt\AssemblerProject\bin\x64\Debug\ASMDLL.lib
D:\Studia\JA\Projekt\AssemblerProject\bin\x64\Debug\ASMDLL.exp
^D:\Studia\JA\Projekt\ASMDLL\ASMDLL.vcxproj
D:\Studia\JA\Projekt\AssemblerProject\bin\x64\Debug\ASMDLL.lib
D:\Studia\JA\Projekt\AssemblerProject\bin\x64\Debug\ASMDLL.exp
^D:\Studia\JA\Projekt\ASMDLL\ASMDLL.vcxproj
D:\Studia\JA\Projekt\AssemblerProject\bin\x64\Debug\ASMDLL.lib
D:\Studia\JA\Projekt\AssemblerProject\bin\x64\Debug\ASMDLL.exp
^D:\Studia\JA\Projekt\ASMDLL\ASMDLL.vcxproj
D:\Studia\JA\Projekt\AssemblerProject\bin\x64\Debug\ASMDLL.lib
D:\Studia\JA\Projekt\AssemblerProject\bin\x64\Debug\ASMDLL.exp
^D:\Studia\JA\Projekt\ASMDLL\ASMDLL.vcxproj
D:\Studia\JA\Projekt\AssemblerProject\bin\x64\Debug\ASMDLL.lib
D:\Studia\JA\Projekt\AssemblerProject\bin\x64\Debug\ASMDLL.exp
^D:\Studia\JA\Projekt\ASMDLL\ASMDLL.vcxproj
D:\Studia\JA\Projekt\AssemblerProject\bin\x64\Debug\ASMDLL.lib
D:\Studia\JA\Projekt\AssemblerProject\bin\x64\Debug\ASMDLL.exp
^D:\Studia\JA\Projekt\ASMDLL\ASMDLL.vcxproj
D:\Studia\JA\Projekt\AssemblerProject\bin\x64\Debug\ASMDLL.lib
D:\Studia\JA\Projekt\AssemblerProject\bin\x64\Debug\ASMDLL.exp
^D:\Studia\JA\Projekt\ASMDLL\ASMDLL.vcxproj
D:\Studia\JA\Projekt\AssemblerProject\bin\x64\Debug\ASMDLL.lib
D:\Studia\JA\Projekt\AssemblerProject\bin\x64\Debug\ASMDLL.exp
^D:\Studia\JA\Projekt\ASMDLL\ASMDLL.vcxproj
D:\Studia\JA\Projekt\AssemblerProject\bin\x64\Debug\ASMDLL.lib
D:\Studia\JA\Projekt\AssemblerProject\bin\x64\Debug\ASMDLL.exp
^D:\Studia\JA\Projekt\ASMDLL\ASMDLL.vcxproj
D:\Studia\JA\Projekt\AssemblerProject\bin\x64\Debug\ASMDLL.lib
D:\Studia\JA\Projekt\AssemblerProject\bin\x64\Debug\ASMDLL.exp
^D:\Studia\JA\Projekt\ASMDLL\ASMDLL.vcxproj
D:\Studia\JA\Projekt\AssemblerProject\bin\x64\Debug\ASMDLL.lib
D:\Studia\JA\Projekt\AssemblerProject\bin\x64\Debug\ASMDLL.exp
^D:\Studia\JA\Projekt\ASMDLL\ASMDLL.vcxproj
D:\Studia\JA\Projekt\AssemblerProject\bin\x64\Debug\ASMDLL.lib
D:\Studia\JA\Projekt\AssemblerProject\bin\x64\Debug\ASMDLL.exp
^D:\Studia\JA\Projekt\ASMDLL\ASMDLL.vcxproj
D:\Studia\JA\Projekt\AssemblerProject\bin\x64\Debug\ASMDLL.lib
D:\Studia\JA\Projekt\AssemblerProject\bin\x64\Debug\ASMDLL.exp
^D:\Studia\JA\Projekt\ASMDLL\ASMDLL.vcxproj
D:\Studia\JA\Projekt\AssemblerProject\bin\x64\Debug\ASMDLL.lib
D:\Studia\JA\Projekt\AssemblerProject\bin\x64\Debug\ASMDLL.exp
^D:\Studia\JA\Projekt\ASMDLL\ASMDLL.vcxproj
D:\Studia\JA\Projekt\AssemblerProject\bin\x64\Debug\ASMDLL.lib
D:\Studia\JA\Projekt\AssemblerProject\bin\x64\Debug\ASMDLL.exp
^D:\Studia\JA\Projekt\ASMDLL\ASMDLL.vcxproj
D:\Studia\JA\Projekt\AssemblerProject\bin\x64\Debug\ASMDLL.lib
D:\Studia\JA\Projekt\AssemblerProject\bin\x64\Debug\ASMDLL.exp
^D:\Studia\JA\Projekt\ASMDLL\ASMDLL.vcxproj
D:\Studia\JA\Projekt\AssemblerProject\bin\x64\Debug\ASMDLL.lib
D:\Studia\JA\Projekt\AssemblerProject\bin\x64\Debug\ASMDLL.exp
^D:\Studia\JA\Projekt\ASMDLL\ASMDLL.vcxproj
D:\Studia\JA\Projekt\AssemblerProject\bin\x64\Debug\ASMDLL.lib
D:\Studia\JA\Projekt\AssemblerProject\bin\x64\Debug\ASMDLL.exp
^D:\Studia\JA\Projekt\ASMDLL\ASMDLL.vcxproj
D:\Studia\JA\Projekt\AssemblerProject\bin\x64\Debug\ASMDLL.lib
D:\Studia\JA\Projekt\AssemblerProject\bin\x64\Debug\ASMDLL.exp
^D:\Studia\JA\Projekt\ASMDLL\ASMDLL.vcxproj
D:\Studia\JA\Projekt\AssemblerProject\bin\x64\Debug\ASMDLL.lib
D:\Studia\JA\Projekt\AssemblerProject\bin\x64\Debug\ASMDLL.exp
^D:\Studia\JA\Projekt\ASMDLL\ASMDLL.vcxproj
D:\Studia\JA\Projekt\AssemblerProject\bin\x64\Debug\ASMDLL.lib
D:\Studia\JA\Projekt\AssemblerProject\bin\x64\Debug\ASMDLL.exp
^D:\Studia\JA\Projekt\ASMDLL\ASMDLL.vcxproj
D:\Studia\JA\Projekt\AssemblerProject\bin\x64\Debug\ASMDLL.lib
D:\Studia\JA\Projekt\AssemblerProject\bin\x64\Debug\ASMDLL.exp
^D:\Studia\JA\Projekt\ASMDLL\ASMDLL.vcxproj
D:\Studia\JA\Projekt\AssemblerProject\bin\x64\Debug\ASMDLL.lib
D:\Studia\JA\Projekt\AssemblerProject\bin\x64\Debug\ASMDLL.exp
^D:\Studia\JA\Projekt\ASMDLL\ASMDLL.vcxproj
D:\Studia\JA\Projekt\AssemblerProject\bin\x64\Debug\ASMDLL.lib
D:\Studia\JA\Projekt\AssemblerProject\bin\x64\Debug\ASMDLL.exp
